[gd_scene load_steps=7 format=1]

[ext_resource path="res://scripts/scrPlatano.gd" type="Script" id=1]
[ext_resource path="res://resources/platano.png" type="Texture" id=2]

[sub_resource type="ConvexPolygonShape2D" id=1]

custom_solver_bias = 0.0
points = Vector2Array( -3.63602, 14.2065, -8.89182, 14.2065, -13.5636, 11.5786, -1.3001, 2.52695, 8.62753, 5.73883 )

[sub_resource type="ConvexPolygonShape2D" id=2]

custom_solver_bias = 0.0
points = Vector2Array( 8.33553, -10.0286, 8.62753, 5.73883, -1.3001, 2.52695, 2.78774, -6.23272 )

[sub_resource type="ConvexPolygonShape2D" id=3]

custom_solver_bias = 0.0
points = Vector2Array( 8.33553, -10.0286, 2.78774, -6.23272, 4.53967, -15.2844, 7.75156, -14.1164 )

[sub_resource type="Animation" id=4]

resource/name = "rotar"
length = 0.5
loop = true
step = 0.1
tracks/0/type = "value"
tracks/0/path = NodePath("Sprite:transform/rot")
tracks/0/interp = 1
tracks/0/imported = false
tracks/0/keys = { "times":FloatArray( 0, 0.5 ), "transitions":FloatArray( 1, 1 ), "update":0, "values":[ 0.0, 360.0 ] }
tracks/1/type = "value"
tracks/1/path = NodePath("CollisionPolygon2D:transform/rot")
tracks/1/interp = 1
tracks/1/imported = false
tracks/1/keys = { "times":FloatArray( 0, 0.5 ), "transitions":FloatArray( 1, 1 ), "update":0, "values":[ 0.0, 360.0 ] }

[node name="platano" type="RigidBody2D"]

input/pickable = true
shapes/0/shape = SubResource( 1 )
shapes/0/transform = Matrix32( 1, 0, 0, 1, 0, 0 )
shapes/0/trigger = false
shapes/1/shape = SubResource( 2 )
shapes/1/transform = Matrix32( 1, 0, 0, 1, 0, 0 )
shapes/1/trigger = false
shapes/2/shape = SubResource( 3 )
shapes/2/transform = Matrix32( 1, 0, 0, 1, 0, 0 )
shapes/2/trigger = false
collision/layers = 1
collision/mask = 1
mode = 0
mass = 0.03
friction = 1.0
bounce = 0.0
gravity_scale = 1.0
custom_integrator = false
continuous_cd = 0
contacts_reported = 1
contact_monitor = true
sleeping = false
can_sleep = true
velocity/linear = Vector2( 0, 0 )
velocity/angular = 0.0
damp_override/linear = -1.0
damp_override/angular = -1.0
script/script = ExtResource( 1 )

[node name="Sprite" type="Sprite" parent="."]

texture = ExtResource( 2 )

[node name="CollisionPolygon2D" type="CollisionPolygon2D" parent="."]

build_mode = 0
polygon = Vector2Array( -3.63602, 14.2065, 8.62753, 5.73883, 8.33553, -10.0286, 7.75156, -14.1164, 4.53967, -15.2844, 2.78774, -6.23272, -1.3001, 2.52695, -13.5636, 11.5786, -8.89182, 14.2065 )
shape_range = Vector2( 0, 2 )
trigger = false

[node name="AnimationPlayer" type="AnimationPlayer" parent="."]

playback/process_mode = 1
playback/default_blend_time = 0.0
root/root = NodePath("..")
anims/rotar = SubResource( 4 )
playback/active = true
playback/speed = 1.0
blend_times = [  ]
autoplay = "rotar"


