[gd_scene load_steps=3 format=1]

[ext_resource path="res://resources/Back.png" type="Texture" id=1]
[ext_resource path="res://scripts/scrBotonVolverMenu.gd" type="Script" id=2]

[node name="volverMenu" type="Node2D"]

[node name="botonVolverMenu" type="TextureButton" parent="."]

process/pause_mode = 2
focus/ignore_mouse = false
focus/stop_mouse = true
size_flags/horizontal = 2
size_flags/vertical = 2
margin/left = 0.0
margin/top = 0.0
margin/right = 40.0
margin/bottom = 40.0
toggle_mode = false
enabled_focus_mode = 2
shortcut = null
textures/normal = ExtResource( 1 )
script/script = ExtResource( 2 )


